{
	"info": {
		"_postman_id": "2a977057-8ceb-4365-9247-0fe08effb68e",
		"name": "Express Collection",
		"schema": "https://schema.getpostman.com/json/collection/v2.1.0/collection.json",
		"_exporter_id": "20552944"
	},
	"item": [
		{
			"name": "Express GET Request",
			"request": {
				"method": "GET",
				"header": [],
				"url": {
					"raw": "localhost:3000/",
					"host": [
						"localhost"
					],
					"port": "3000",
					"path": [
						""
					]
				}
			},
			"response": []
		},
		{
			"name": "Express GET /hello Request",
			"request": {
				"method": "GET",
				"header": [],
				"url": {
					"raw": "localhost:3000/hello",
					"host": [
						"localhost"
					],
					"port": "3000",
					"path": [
						"hello"
					]
				}
			},
			"response": []
		},
		{
			"name": "Express POST /hello Request",
			"request": {
				"method": "POST",
				"header": [],
				"body": {
					"mode": "raw",
					"raw": "{\n    \"firstName\": \"John\",\n    \"lastName\": \"Doe\"\n}",
					"options": {
						"raw": {
							"language": "json"
						}
					}
				},
				"url": {
					"raw": "localhost:3000/hello",
					"host": [
						"localhost"
					],
					"port": "3000",
					"path": [
						"hello"
					]
				}
			},
			"response": []
		},
		{
			"name": "Express POST /signup Request",
			"request": {
				"method": "POST",
				"header": [],
				"body": {
					"mode": "raw",
					"raw": "{\n    \"username\": \"johndoe\",\n    \"password\": \"john1234\"\n}",
					"options": {
						"raw": {
							"language": "json"
						}
					}
				},
				"url": {
					"raw": "localhost:3000/signup",
					"host": [
						"localhost"
					],
					"port": "3000",
					"path": [
						"signup"
					]
				}
			},
			"response": []
		},
		{
			"name": "Express PUT /change-password Request",
			"request": {
				"method": "PUT",
				"header": [],
				"body": {
					"mode": "raw",
					"raw": "{\n    \"username\": \"johndoe\",\n    \"password\": \"johndoe1234\"\n}",
					"options": {
						"raw": {
							"language": "json"
						}
					}
				},
				"url": {
					"raw": "localhost:3000/change-password",
					"host": [
						"localhost"
					],
					"port": "3000",
					"path": [
						"change-password"
					]
				}
			},
			"response": []
		},
		{
			"name": "Express GET /home Request",
			"request": {
				"method": "GET",
				"header": [],
				"url": {
					"raw": "localhost:3000/home",
					"host": [
						"localhost"
					],
					"port": "3000",
					"path": [
						"home"
					]
				}
			},
			"response": []
		},
		{
			"name": "Express GET /users Request",
			"request": {
				"method": "GET",
				"header": [],
				"url": {
					"raw": "localhost:3000/users",
					"host": [
						"localhost"
					],
					"port": "3000",
					"path": [
						"users"
					]
				}
			},
			"response": []
		},
		{
			"name": "Express DELETE /delete-user Request",
			"request": {
				"method": "DELETE",
				"header": [],
				"body": {
					"mode": "raw",
					"raw": "{\n    \"username\": \"johndoe\"\n}",
					"options": {
						"raw": {
							"language": "json"
						}
					}
				},
				"url": {
					"raw": "localhost:3000/delete-user",
					"host": [
						"localhost"
					],
					"port": "3000",
					"path": [
						"delete-user"
					]
				}
			},
			"response": []
		}
	]
}